[
{
  "code": "RC",
  "name": "RECARGA"
},
{
  "code": "CONTPRCHS",
  "name": "VENTA DE CONTENIDO"
},
{
  "code": "ONLINEBP",
  "name": "PAGO DE FACTURAS"
},
{
  "code": "SRBILPAY",
  "name": "PAGO DE FACTURAS"
},
{
  "code": "LOANDISB",
  "name": "RECIBISTE CREDITO MOVIIRED"
},
{
  "code": "LOANREPAY",
  "name": "PAGASTE CREDITO MOVIIRED"
},
{
  "code": "O2C",
  "name": "COMISIONES"
},
{
  "code": "C2C",
  "name": "CARGUE CUENTA MOVIIRED"
},
{
  "code": "AUTOO2C",
  "name": "CARGUE CUENTA MOVIIRED"
},
{
  "code": "CASHIN",
  "name": "CARGUE CUENTA MOVII"
},
{
  "code": "CASHOUT",
  "name": "RETIRO DINERO DE CUENTA MOVII"
}
]